SOMADOR/simulation/qsim/SOMADOR.msim.vcd
$comment
	File created using the following command:
		vcd file SOMADOR.msim.vcd -direction
$end
$date
	Thu Oct 31 19:02:35 2024
$end
$version
	ModelSim Version 10.5b
$end
$timescale
	1ps
$end

$scope module somador_vhd_vec_tst $end
$var wire 1 ! N1 [3] $end
$var wire 1 " N1 [2] $end
$var wire 1 # N1 [1] $end
$var wire 1 $ N1 [0] $end
$var wire 1 % N2 [3] $end
$var wire 1 & N2 [2] $end
$var wire 1 ' N2 [1] $end
$var wire 1 ( N2 [0] $end
$var wire 1 ) Sf [3] $end
$var wire 1 * Sf [2] $end
$var wire 1 + Sf [1] $end
$var wire 1 , Sf [0] $end

$scope module i1 $end
$var wire 1 - gnd $end
$var wire 1 . vcc $end
$var wire 1 / unknown $end
$var wire 1 0 devoe $end
$var wire 1 1 devclrn $end
$var wire 1 2 devpor $end
$var wire 1 3 ww_devoe $end
$var wire 1 4 ww_devclrn $end
$var wire 1 5 ww_devpor $end
$var wire 1 6 ww_N1 [3] $end
$var wire 1 7 ww_N1 [2] $end
$var wire 1 8 ww_N1 [1] $end
$var wire 1 9 ww_N1 [0] $end
$var wire 1 : ww_N2 [3] $end
$var wire 1 ; ww_N2 [2] $end
$var wire 1 < ww_N2 [1] $end
$var wire 1 = ww_N2 [0] $end
$var wire 1 > ww_Sf [3] $end
$var wire 1 ? ww_Sf [2] $end
$var wire 1 @ ww_Sf [1] $end
$var wire 1 A ww_Sf [0] $end
$var wire 1 B \~QUARTUS_CREATED_GND~I_combout\ $end
$var wire 1 C \N1[0]~input_o\ $end
$var wire 1 D \N2[0]~input_o\ $end
$var wire 1 E \S1|S~0_combout\ $end
$var wire 1 F \N2[1]~input_o\ $end
$var wire 1 G \N1[1]~input_o\ $end
$var wire 1 H \S2|S~combout\ $end
$var wire 1 I \N2[2]~input_o\ $end
$var wire 1 J \N1[2]~input_o\ $end
$var wire 1 K \S3|S~combout\ $end
$var wire 1 L \S2|Cout~0_combout\ $end
$var wire 1 M \N2[3]~input_o\ $end
$var wire 1 N \N1[3]~input_o\ $end
$var wire 1 O \S4|S~combout\ $end
$var wire 1 P \ALT_INV_N2[3]~input_o\ $end
$var wire 1 Q \ALT_INV_N1[3]~input_o\ $end
$var wire 1 R \ALT_INV_N2[2]~input_o\ $end
$var wire 1 S \ALT_INV_N1[2]~input_o\ $end
$var wire 1 T \ALT_INV_N2[1]~input_o\ $end
$var wire 1 U \ALT_INV_N1[1]~input_o\ $end
$var wire 1 V \ALT_INV_N2[0]~input_o\ $end
$var wire 1 W \ALT_INV_N1[0]~input_o\ $end
$var wire 1 X \S2|ALT_INV_Cout~0_combout\ $end
$upscope $end
$upscope $end
$enddefinitions $end
#0
$dumpvars
0-
1.
x/
10
11
12
13
14
15
xB
1C
0D
1E
0F
1G
1H
0I
0J
0K
0L
1M
0N
1O
0P
1Q
1R
1S
1T
0U
1V
0W
1X
0!
0"
1#
1$
1%
0&
0'
0(
06
07
18
19
1:
0;
0<
0=
1>
0?
1@
1A
1)
0*
1+
1,
$end
#10000
1"
0#
0$
09
08
17
1J
0G
0C
1W
1U
0S
0E
0H
1K
1?
0@
0A
0,
0+
1*
#20000
1$
19
1C
0W
1E
1A
1,
#30000
0$
1#
09
18
1G
0C
1W
0U
0E
1H
1@
0A
0,
1+
#40000
1$
0%
19
0:
0M
1C
0W
1P
0O
1E
1A
0>
1,
0)
#50000
0$
0#
0"
1!
09
08
07
16
1N
0J
0G
0C
1W
1U
1S
0Q
1O
0E
0H
0K
0?
0@
0A
1>
0,
0+
0*
1)
#60000
1$
19
1C
0W
1E
1A
1,
#70000
0$
1#
09
18
1G
0C
1W
0U
0E
1H
1@
0A
0,
1+
#80000
1$
1%
19
1:
1M
1C
0W
0P
0O
1E
1A
0>
1,
0)
#90000
0$
0#
1"
09
08
17
1J
0G
0C
1W
1U
0S
0E
0H
1K
1?
0@
0A
0,
0+
1*
#100000
1$
19
1C
0W
1E
1A
1,
#110000
0$
1#
09
18
1G
0C
1W
0U
0E
1H
1@
0A
0,
1+
#120000
1$
0%
19
0:
0M
1C
0W
1P
1O
1E
1A
1>
1,
1)
#130000
0$
0#
0"
0!
09
08
07
06
0N
0J
0G
0C
1W
1U
1S
1Q
0O
0E
0H
0K
0?
0@
0A
0>
0,
0+
0*
0)
#140000
1$
19
1C
0W
1E
1A
1,
#150000
0$
1#
09
18
1G
0C
1W
0U
0E
1H
1@
0A
0,
1+
#160000
1$
1%
19
1:
1M
1C
0W
0P
1O
1E
1A
1>
1,
1)
#170000
0$
0#
1"
09
08
17
1J
0G
0C
1W
1U
0S
0E
0H
1K
1?
0@
0A
0,
0+
1*
#180000
1$
19
1C
0W
1E
1A
1,
#190000
0$
1#
09
18
1G
0C
1W
0U
0E
1H
1@
0A
0,
1+
#200000
1$
0%
19
0:
0M
1C
0W
1P
0O
1E
1A
0>
1,
0)
#210000
0$
0#
0"
1!
09
08
07
16
1N
0J
0G
0C
1W
1U
1S
0Q
1O
0E
0H
0K
0?
0@
0A
1>
0,
0+
0*
1)
#220000
1$
19
1C
0W
1E
1A
1,
#230000
0$
1#
09
18
1G
0C
1W
0U
0E
1H
1@
0A
0,
1+
#240000
1$
1%
19
1:
1M
1C
0W
0P
0O
1E
1A
0>
1,
0)
#250000
0$
0#
1"
09
08
17
1J
0G
0C
1W
1U
0S
0E
0H
1K
1?
0@
0A
0,
0+
1*
#260000
1$
19
1C
0W
1E
1A
1,
#270000
0$
1#
09
18
1G
0C
1W
0U
0E
1H
1@
0A
0,
1+
#280000
1$
0%
19
0:
0M
1C
0W
1P
1O
1E
1A
1>
1,
1)
#290000
0$
0#
0"
0!
09
08
07
06
0N
0J
0G
0C
1W
1U
1S
1Q
0O
0E
0H
0K
0?
0@
0A
0>
0,
0+
0*
0)
#300000
1$
19
1C
0W
1E
1A
1,
#310000
0$
1#
09
18
1G
0C
1W
0U
0E
1H
1@
0A
0,
1+
#320000
1$
1%
19
1:
1M
1C
0W
0P
1O
1E
1A
1>
1,
1)
#330000
0$
0#
1"
09
08
17
1J
0G
0C
1W
1U
0S
0E
0H
1K
1?
0@
0A
0,
0+
1*
#340000
1$
19
1C
0W
1E
1A
1,
#350000
0$
1#
09
18
1G
0C
1W
0U
0E
1H
1@
0A
0,
1+
#360000
1$
0%
19
0:
0M
1C
0W
1P
0O
1E
1A
0>
1,
0)
#370000
0$
0#
0"
1!
09
08
07
16
1N
0J
0G
0C
1W
1U
1S
0Q
1O
0E
0H
0K
0?
0@
0A
1>
0,
0+
0*
1)
#380000
1$
19
1C
0W
1E
1A
1,
#390000
0$
1#
09
18
1G
0C
1W
0U
0E
1H
1@
0A
0,
1+
#400000
1$
1%
19
1:
1M
1C
0W
0P
0O
1E
1A
0>
1,
0)
#410000
0$
0#
1"
09
08
17
1J
0G
0C
1W
1U
0S
0E
0H
1K
1?
0@
0A
0,
0+
1*
#420000
1$
19
1C
0W
1E
1A
1,
#430000
0$
1#
09
18
1G
0C
1W
0U
0E
1H
1@
0A
0,
1+
#440000
1$
0%
19
0:
0M
1C
0W
1P
1O
1E
1A
1>
1,
1)
#450000
0$
0#
0"
0!
09
08
07
06
0N
0J
0G
0C
1W
1U
1S
1Q
0O
0E
0H
0K
0?
0@
0A
0>
0,
0+
0*
0)
#460000
1$
19
1C
0W
1E
1A
1,
#470000
0$
1#
09
18
1G
0C
1W
0U
0E
1H
1@
0A
0,
1+
#480000
1$
1%
19
1:
1M
1C
0W
0P
1O
1E
1A
1>
1,
1)
#490000
0$
0#
1"
09
08
17
1J
0G
0C
1W
1U
0S
0E
0H
1K
1?
0@
0A
0,
0+
1*
#500000
1$
19
1C
0W
1E
1A
1,
#510000
0$
1#
09
18
1G
0C
1W
0U
0E
1H
1@
0A
0,
1+
#520000
1$
0%
19
0:
0M
1C
0W
1P
0O
1E
1A
0>
1,
0)
#530000
0$
0#
0"
1!
09
08
07
16
1N
0J
0G
0C
1W
1U
1S
0Q
1O
0E
0H
0K
0?
0@
0A
1>
0,
0+
0*
1)
#540000
1$
19
1C
0W
1E
1A
1,
#550000
0$
1#
09
18
1G
0C
1W
0U
0E
1H
1@
0A
0,
1+
#560000
1$
1%
19
1:
1M
1C
0W
0P
0O
1E
1A
0>
1,
0)
#570000
0$
0#
1"
09
08
17
1J
0G
0C
1W
1U
0S
0E
0H
1K
1?
0@
0A
0,
0+
1*
#580000
1$
19
1C
0W
1E
1A
1,
#590000
0$
1#
09
18
1G
0C
1W
0U
0E
1H
1@
0A
0,
1+
#600000
1$
0%
19
0:
0M
1C
0W
1P
1O
1E
1A
1>
1,
1)
#610000
0$
0#
0"
0!
09
08
07
06
0N
0J
0G
0C
1W
1U
1S
1Q
0O
0E
0H
0K
0?
0@
0A
0>
0,
0+
0*
0)
#620000
1$
19
1C
0W
1E
1A
1,
#630000
0$
1#
09
18
1G
0C
1W
0U
0E
1H
1@
0A
0,
1+
#640000
1$
1%
19
1:
1M
1C
0W
0P
1O
1E
1A
1>
1,
1)
#650000
0$
0#
1"
09
08
17
1J
0G
0C
1W
1U
0S
0E
0H
1K
1?
0@
0A
0,
0+
1*
#660000
1$
19
1C
0W
1E
1A
1,
#670000
0$
1#
09
18
1G
0C
1W
0U
0E
1H
1@
0A
0,
1+
#680000
1$
0%
19
0:
0M
1C
0W
1P
0O
1E
1A
0>
1,
0)
#690000
0$
0#
0"
1!
09
08
07
16
1N
0J
0G
0C
1W
1U
1S
0Q
1O
0E
0H
0K
0?
0@
0A
1>
0,
0+
0*
1)
#700000
1$
19
1C
0W
1E
1A
1,
#710000
0$
1#
09
18
1G
0C
1W
0U
0E
1H
1@
0A
0,
1+
#720000
1$
1%
19
1:
1M
1C
0W
0P
0O
1E
1A
0>
1,
0)
#730000
0$
0#
1"
09
08
17
1J
0G
0C
1W
1U
0S
0E
0H
1K
1?
0@
0A
0,
0+
1*
#740000
1$
19
1C
0W
1E
1A
1,
#750000
0$
1#
09
18
1G
0C
1W
0U
0E
1H
1@
0A
0,
1+
#760000
1$
0%
19
0:
0M
1C
0W
1P
1O
1E
1A
1>
1,
1)
#770000
0$
0#
0"
0!
09
08
07
06
0N
0J
0G
0C
1W
1U
1S
1Q
0O
0E
0H
0K
0?
0@
0A
0>
0,
0+
0*
0)
#780000
1$
19
1C
0W
1E
1A
1,
#790000
0$
1#
09
18
1G
0C
1W
0U
0E
1H
1@
0A
0,
1+
#800000
1$
1%
19
1:
1M
1C
0W
0P
1O
1E
1A
1>
1,
1)
#810000
0$
0#
1"
09
08
17
1J
0G
0C
1W
1U
0S
0E
0H
1K
1?
0@
0A
0,
0+
1*
#820000
1$
19
1C
0W
1E
1A
1,
#830000
0$
1#
09
18
1G
0C
1W
0U
0E
1H
1@
0A
0,
1+
#840000
1$
0%
19
0:
0M
1C
0W
1P
0O
1E
1A
0>
1,
0)
#850000
0$
0#
0"
1!
09
08
07
16
1N
0J
0G
0C
1W
1U
1S
0Q
1O
0E
0H
0K
0?
0@
0A
1>
0,
0+
0*
1)
#860000
1$
19
1C
0W
1E
1A
1,
#870000
0$
1#
09
18
1G
0C
1W
0U
0E
1H
1@
0A
0,
1+
#880000
1$
1%
19
1:
1M
1C
0W
0P
0O
1E
1A
0>
1,
0)
#890000
0$
0#
1"
09
08
17
1J
0G
0C
1W
1U
0S
0E
0H
1K
1?
0@
0A
0,
0+
1*
#900000
1$
19
1C
0W
1E
1A
1,
#910000
0$
1#
09
18
1G
0C
1W
0U
0E
1H
1@
0A
0,
1+
#920000
1$
0%
19
0:
0M
1C
0W
1P
1O
1E
1A
1>
1,
1)
#930000
0$
0#
0"
0!
09
08
07
06
0N
0J
0G
0C
1W
1U
1S
1Q
0O
0E
0H
0K
0?
0@
0A
0>
0,
0+
0*
0)
#940000
1$
19
1C
0W
1E
1A
1,
#950000
0$
1#
09
18
1G
0C
1W
0U
0E
1H
1@
0A
0,
1+
#960000
1$
1%
19
1:
1M
1C
0W
0P
1O
1E
1A
1>
1,
1)
#970000
0$
0#
1"
09
08
17
1J
0G
0C
1W
1U
0S
0E
0H
1K
1?
0@
0A
0,
0+
1*
#980000
1$
19
1C
0W
1E
1A
1,
#990000
0$
1#
09
18
1G
0C
1W
0U
0E
1H
1@
0A
0,
1+
